# NEW import_masshunter_csv: 1_DefaultSampleInfo_AreaOnly

    Code
      d
    Output
      # A tibble: 1,040 x 7
         RUN_ID DataName                  DATAFILE_NAME SampleType AcqTimeStamp       
          <int> <chr>                     <chr>         <chr>      <dttm>             
       1      1 006_EBLK_Extracted Blank~ 006_EBLK_Ext~ Sample     2018-04-19 18:37:00
       2      1 006_EBLK_Extracted Blank~ 006_EBLK_Ext~ Sample     2018-04-19 18:37:00
       3      1 006_EBLK_Extracted Blank~ 006_EBLK_Ext~ Sample     2018-04-19 18:37:00
       4      1 006_EBLK_Extracted Blank~ 006_EBLK_Ext~ Sample     2018-04-19 18:37:00
       5      1 006_EBLK_Extracted Blank~ 006_EBLK_Ext~ Sample     2018-04-19 18:37:00
       6      1 006_EBLK_Extracted Blank~ 006_EBLK_Ext~ Sample     2018-04-19 18:37:00
       7      1 006_EBLK_Extracted Blank~ 006_EBLK_Ext~ Sample     2018-04-19 18:37:00
       8      1 006_EBLK_Extracted Blank~ 006_EBLK_Ext~ Sample     2018-04-19 18:37:00
       9      1 006_EBLK_Extracted Blank~ 006_EBLK_Ext~ Sample     2018-04-19 18:37:00
      10      1 006_EBLK_Extracted Blank~ 006_EBLK_Ext~ Sample     2018-04-19 18:37:00
      # i 1,030 more rows
      # i 2 more variables: SOURCE_FEATURE_NAME <chr>, Area <dbl>
