The `MidarExperiment` data object • midar
…
m_polars <- MidarExperiment(title = "Polar metabolites")
m_lipids <- MidarExperiment(title = "Non-polar metabolites")

Accessing data and metadata

Functions starting with data_get_ allow to retrieve data
and metadat from MidarExperiment object.

myexp <- data_load_example(myexp, 1)
dataset <- get_analyticaldata(myexp, annotated = TRUE)

print(dataset)
#> # A tibble: 14,471 × 19
#>    analysis_order analysis_id  acquisition_time_stamp qc_type batch_id sample_id
#>             <int> <chr>        <dttm>                 <chr>   <chr>    <chr>    
#>  1              1 Longit_BLAN… 2017-10-20 14:15:36    SBLK    1        Longit_B…
#>  2              1 Longit_BLAN… 2017-10-20 14:15:36    SBLK    1        Longit_B…
#>  3              1 Longit_BLAN… 2017-10-20 14:15:36    SBLK    1        Longit_B…
#>  4              1 Longit_BLAN… 2017-10-20 14:15:36    SBLK    1        Longit_B…
#>  5              1 Longit_BLAN… 2017-10-20 14:15:36    SBLK    1        Longit_B…
#>  6              1 Longit_BLAN… 2017-10-20 14:15:36    SBLK    1        Longit_B…
#>  7              1 Longit_BLAN… 2017-10-20 14:15:36    SBLK    1        Longit_B…
#>  8              1 Longit_BLAN… 2017-10-20 14:15:36    SBLK    1        Longit_B…
#>  9              1 Longit_BLAN… 2017-10-20 14:15:36    SBLK    1        Longit_B…
#> 10              1 Longit_BLAN… 2017-10-20 14:15:36    SBLK    1        Longit_B…
#> # ℹ 14,461 more rows
#> # ℹ 13 more variables: replicate_no <int>, specimen <chr>, feature_id <chr>,
#> #   feature_class <chr>, feature_label <chr>, is_istd <lgl>,
#> #   is_quantifier <lgl>, analyte_id <chr>, feature_rt <dbl>,
#> #   feature_area <dbl>, feature_height <dbl>, feature_fwhm <dbl>,
#> #   feature_intensity <dbl>

Alternatively, the $ syntax can be used access data and
metadata tables in MidarExperiment objects.

analyses <- myexp$annot_analyses
features <- myexp$annot_features
  print(features)
#> # A tibble: 29 × 16
#>    feature_id              feature_class analyte_id is_istd istd_feature_id     
#>    <chr>                   <chr>         <chr>      <lgl>   <chr>               
#>  1 CE 18:1                 CE            NA         FALSE   CE 18:1 d7 (ISTD)   
#>  2 CE 18:1 d7 (ISTD)       CE            NA         TRUE    CE 18:1 d7 (ISTD)   
#>  3 Cer d18:1/16:0          Cer 18:1;O2   NA         FALSE   Cer d18:1/25:0 (IST…
#>  4 Cer d18:1/24:0          Cer 18:1;O2   NA         FALSE   Cer d18:1/25:0 (IST…
#>  5 Cer d18:1/25:0 (ISTD)   Cer 18:1;O2   NA         TRUE    Cer d18:1/25:0 (IST…
#>  6 LPC 18:1 (a)            LPC           NA         FALSE   LPC 18:1 (ab) d7 (I…
#>  7 LPC 18:1 (ab) d7 (ISTD) LPC           NA         TRUE    LPC 18:1 (ab) d7 (I…
#>  8 LPC 18:1 (b)            LPC           NA         FALSE   LPC 18:1 (ab) d7 (I…
#>  9 PC 28:0|SM 32:1 M+3     PC            NA         FALSE   PC 33:1 d7 (ISTD)   
#> 10 PC 32:1                 PC            NA         FALSE   PC 33:1 d7 (ISTD)   
#> # ℹ 19 more rows
#> # ℹ 11 more variables: quant_istd_feature_id <chr>, is_quantifier <lgl>,
#> #   valid_feature <lgl>, response_factor <dbl>, interference_feature_id <chr>,
#> #   interference_contribution <dbl>, curve_fit_model <chr>,
#> #   fit_weighting <chr>, remarks <chr>, feature_label <chr>,
#> #   curve_fit_weighting <chr>
…
