MidarExperiment object • midar
…
myexp_1 <- MidarExperiment(title = "Polar metabolites")
myexp_2 <- MidarExperiment(title = "Non-polar metabolites")

#myexp <- midar::combine_experiments(myexp_1, myexp_2)

Accessing data and metadata

Functions starting with data_get_ allow to retrieve data
and metadat from MidarExperiment object.

myexp <- data_load_example(myexp, 1)
dataset <- get_analyticaldata(myexp)

print(dataset)
#> # A tibble: 16,467 × 18
#>    run_seq_num analysis_id     acquisition_time_stamp qc_type batch_id sample_id
#>          <int> <chr>           <dttm>                 <chr>   <chr>    <chr>    
#>  1           1 Longit_BLANK-0… 2017-10-20 14:15:36    SBLK    1        NA       
#>  2           1 Longit_BLANK-0… 2017-10-20 14:15:36    SBLK    1        NA       
#>  3           1 Longit_BLANK-0… 2017-10-20 14:15:36    SBLK    1        NA       
#>  4           1 Longit_BLANK-0… 2017-10-20 14:15:36    SBLK    1        NA       
#>  5           1 Longit_BLANK-0… 2017-10-20 14:15:36    SBLK    1        NA       
#>  6           1 Longit_BLANK-0… 2017-10-20 14:15:36    SBLK    1        NA       
#>  7           1 Longit_BLANK-0… 2017-10-20 14:15:36    SBLK    1        NA       
#>  8           1 Longit_BLANK-0… 2017-10-20 14:15:36    SBLK    1        NA       
#>  9           1 Longit_BLANK-0… 2017-10-20 14:15:36    SBLK    1        NA       
#> 10           1 Longit_BLANK-0… 2017-10-20 14:15:36    SBLK    1        NA       
#> # ℹ 16,457 more rows
#> # ℹ 12 more variables: replicate_no <int>, specimen <chr>, feature_id <chr>,
#> #   feature_class <chr>, feature_label <chr>, is_istd <lgl>,
#> #   is_quantifier <lgl>, feature_rt <dbl>, feature_area <dbl>,
#> #   feature_height <dbl>, feature_fwhm <dbl>, feature_intensity <dbl>

Alternatively, the $ syntax can be used access data and
metadata tables in MidarExperiment objects.

analyses <- myexp$annot_analyses
features <- myexp$annot_features
dataset <- myexp$dataset

print(features)
#> # A tibble: 33 × 15
#>    feature_id        feature_class is_istd istd_feature_id quant_istd_feature_id
#>    <chr>             <chr>         <lgl>   <chr>           <chr>                
#>  1 CE 18:1           NA            FALSE   CE 18:1 d7 (IS… CE 18:1 d7 (ISTD)    
#>  2 CE 18:1 d7 (ISTD) NA            TRUE    CE 18:1 d7 (IS… CE 18:1 d7 (ISTD)    
#>  3 Cer d18:1/12:0 (… NA            FALSE   Cer d18:1/25:0… Cer d18:1/25:0 (ISTD)
#>  4 Cer d18:1/16:0    NA            FALSE   Cer d18:1/25:0… Cer d18:1/25:0 (ISTD)
#>  5 Cer d18:1/24:0    NA            FALSE   Cer d18:1/25:0… Cer d18:1/25:0 (ISTD)
#>  6 Cer d18:1/25:0 (… NA            TRUE    Cer d18:1/25:0… Cer d18:1/25:0 (ISTD)
#>  7 LPC 18:1 (a)      NA            FALSE   LPC 18:1 (ab )… LPC 18:1 (ab ) d7 (I…
#>  8 LPC 18:1 (b)      NA            FALSE   LPC 18:1 (ab )… LPC 18:1 (ab ) d7 (I…
#>  9 LPC 18:1 (ab ) d… NA            TRUE    LPC 18:1 (ab )… LPC 18:1 (ab ) d7 (I…
#> 10 LPC 18:1 (a ) d7… NA            FALSE   LPC 18:1 (ab )… LPC 18:1 (ab ) d7 (I…
#> # ℹ 23 more rows
#> # ℹ 10 more variables: is_quantifier <lgl>, valid_feature <lgl>,
#> #   response_factor <dbl>, interference_feature_id <chr>,
#> #   interference_proportion <dbl>, curve_fit_model <chr>, fit_weighting <chr>,
#> #   remarks <chr>, feature_label <chr>, curve_fit_weighting <chr>
…
