Quantitative assay with Ext. calibration and QC • midar
…
#> # A tibble: 8 × 14
#>   feature_id   is_quantifier fit_model fit_weighting reg_failed    r2 lowest_cal
#>   <chr>        <lgl>         <chr>     <chr>         <lgl>      <dbl>      <dbl>
#> 1 Aldosterone  TRUE          quadratic 1/x           FALSE      0.980      0.277
#> 2 Aldosterone… FALSE         quadratic 1/x           FALSE      0.981      0.277
#> 3 Corticoster… TRUE          quadratic 1/x           FALSE      0.998      0.867
#> 4 Corticoster… FALSE         quadratic 1/x           FALSE      0.994      0.867
#> 5 Cortisol     TRUE          quadratic 1/x           FALSE      0.988      5.52 
#> 6 Cortisol [Q… FALSE         quadratic 1/x           FALSE      0.995      5.52 
#> 7 Cortisone    TRUE          quadratic 1/x           FALSE      0.997      1.39 
#> 8 Cortisone [… FALSE         quadratic 1/x           FALSE      0.984      1.39 
#> # ℹ 7 more variables: highest_cal <dbl>, coef_a <dbl>, coef_b <dbl>,
#> #   coef_c <dbl>, lod <dbl>, loq <dbl>, sigma <dbl>
#>   |                                      |                              |   0%  |                                      |==============================| 100%
#> # A tibble: 32 × 11
#>    feature_id   sample_id qc_type conc_target conc_mean conc_sd     bias bias_sd
#>    <chr>        <chr>     <chr>         <dbl>     <dbl>   <dbl>    <dbl>   <dbl>
#>  1 Aldosterone  CAL-A     CAL           0.277     0.280  NA      0.00310  NA    
#>  2 Aldosterone  CAL-B     CAL           0.609     0.373  NA     -0.236    NA    
#>  3 Aldosterone  CAL-C     CAL           1.27      1.84   NA      0.567    NA    
#>  4 Aldosterone  CAL-D     CAL           2.74      2.74   NA      0.00171  NA    
#>  5 Aldosterone  CAL-E     CAL           5.93      5.41   NA     -0.522    NA    
#>  6 Aldosterone  CAL-F     CAL          12.7      12.9    NA      0.184    NA    
#>  7 Aldosterone  HQC       HQC           9.74      8.65    1.14  -1.09      1.14 
#>  8 Aldosterone  LQC       LQC           0.911     0.843   0.132 -0.0682    0.132
#>  9 Corticoster… CAL-A     CAL           0.867     0.920  NA      0.0530   NA    
#> 10 Corticoster… CAL-B     CAL           2.28      1.93   NA     -0.346    NA    
#> # ℹ 22 more rows
#> # ℹ 3 more variables: bias_perc <dbl>, bias_perc_sd <dbl>, cv_intra <dbl>
…
