Lipidomics Data Processing • midar
…
2. A glimpse on the imported data

Let us examine the imported data by executing the code below or by
entering the command View(myexp@dataset_orig) in the
console. As can be observed, the data is in long format, thereby
enabling the user to view multiple parameters for each analysis-feature
pair.

Exercises

Explore the imported table using in the RStudio table viewer with the
filter functionality.

print(myexp@dataset) # Better use `get_rawdata(mexp, "original")`
#> # A tibble: 250,997 × 19
#>    analysis_order analysis_id  acquisition_time_stamp qc_type batch_id sample_id
#>             <int> <chr>        <dttm>                 <chr>   <chr>    <chr>    
#>  1              1 Longit_BLAN… 2017-10-20 14:15:36    SBLK    1        NA       
#>  2              1 Longit_BLAN… 2017-10-20 14:15:36    SBLK    1        NA       
#>  3              1 Longit_BLAN… 2017-10-20 14:15:36    SBLK    1        NA       
#>  4              1 Longit_BLAN… 2017-10-20 14:15:36    SBLK    1        NA       
#>  5              1 Longit_BLAN… 2017-10-20 14:15:36    SBLK    1        NA       
#>  6              1 Longit_BLAN… 2017-10-20 14:15:36    SBLK    1        NA       
#>  7              1 Longit_BLAN… 2017-10-20 14:15:36    SBLK    1        NA       
#>  8              1 Longit_BLAN… 2017-10-20 14:15:36    SBLK    1        NA       
#>  9              1 Longit_BLAN… 2017-10-20 14:15:36    SBLK    1        NA       
#> 10              1 Longit_BLAN… 2017-10-20 14:15:36    SBLK    1        NA       
#> # ℹ 250,987 more rows
#> # ℹ 13 more variables: replicate_no <int>, specimen <chr>, feature_id <chr>,
#> #   feature_class <chr>, feature_label <chr>, is_istd <lgl>,
#> #   is_quantifier <lgl>, analyte_id <chr>, feature_rt <dbl>,
#> #   feature_area <dbl>, feature_height <dbl>, feature_fwhm <dbl>,
#> #   feature_intensity <dbl>
…
